A -> D [0.5] | P [0.5]
$ -> A [1.0]
D -> D [1.0]
L -> V [1.0]
P -> A [0.05] | V [0.1] | ^ [0.25] | U [0.05] | N [0.55]
V -> N P [0.1] | V [0.03333333333333333] | N P P [0.03333333333333333] | O P [0.03333333333333333] | T P [0.06666666666666667] | O ^ [0.03333333333333333] | ^ V [0.06666666666666667] | A [0.03333333333333333] | P P [0.03333333333333333] | V & [0.03333333333333333] | P [0.1] | ^ [0.03333333333333333] | ^ N [0.06666666666666667] | ^ R O V [0.03333333333333333] | N V [0.1] | R O ^ V [0.03333333333333333] | N N [0.03333333333333333] | $ V [0.03333333333333333] | O R R [0.03333333333333333] | N [0.06666666666666667]
^ -> ^ P [0.1] | ^ [0.3] | D ^ [0.2] | N [0.1] | N ^ [0.2] | D ^ ^ [0.1]
N -> P [0.047619047619047616] | S ^ [0.047619047619047616] | D A [0.047619047619047616] | D ^ [0.047619047619047616] | $ [0.047619047619047616] | D [0.19047619047619047] | D A N [0.047619047619047616] | D A P [0.047619047619047616] | A N P [0.047619047619047616] | N N [0.047619047619047616] | A P [0.047619047619047616] | D N [0.19047619047619047] | A N N [0.047619047619047616] | ^ [0.047619047619047616] | A $ P [0.047619047619047616]
& -> V V [0.5] | N [0.5]
S -> V & [0.06666666666666667] | ^ V $ [0.06666666666666667] | V $ [0.06666666666666667] | V V [0.13333333333333333] | L ^ [0.06666666666666667] | V [0.6]
