(ROOT
  (NP
    (NP (JJR More) (NNS #StarWars))
    (: :)
    (NP
      (NP (NNP Battlefront) (NNP -LSB-) (NNP RP))
      (SBAR
        (S
          (NP (JJ -RSB-) (NNS details))
          (VP (VBD included)
            (PP (IN in)
              (NP (DT a) (NNP Q&A)))
            (PP (IN with)
              (NP
                (NP (DT the) (NNS games) (NN developer))
                (: :)
                (NP (JJ http://t.co/y49R8tt8U8) (NNS http://t.co/viGlVBGb88))))))))))
