1	Your	_	D	D	_	2	_
2	day	_	N	N	_	3	_
3	needed	_	V	V	_	0	_
4	this	_	D	D	_	6	_
5	family	_	N	N	_	6	_
6	reunion	_	N	N	_	3	_
7	.	_	,	,	_	-1	_
8	#StarWars	_	#	#	_	-1	_
9	http://t.co/yv8YYSzYuC	_	U	U	_	-1	_

1	More	_	A	A	_	0	_
2	#StarWars	_	#	#	_	-1	_
3	:	_	,	,	_	-1	_
4	Battlefront	_	N	N	_	0	_
5	[	_	,	,	_	-1	_
6	RP	_	G	G	_	-1	_
7	]	_	,	,	_	-1	_
8	details	_	N	N	_	9	_
9	included	_	V	V	_	0	_
10	in	_	P	P	_	9	_
11	a	_	D	D	_	12	_
12	Q&A	_	N	N	_	10	_
13	with	_	P	P	_	12	_
14	the	_	D	D	_	16	_
15	games	_	N	N	_	16	_
16	developer	_	N	N	_	13	_
17	:	_	,	,	_	-1	_
18	http://t.co/y49R8tt8U8	_	U	U	_	-1	_
19	http://t.co/viGlVBGb88	_	U	U	_	-1	_

1	It's	_	L	L	_	0	_
2	a	_	D	D	_	4	_
3	great	_	A	A	_	4	_
4	time	_	N	N	_	1	_
5	to	_	P	P	_	4	_
6	be	_	V	V	_	5	_
7	a	_	D	D	_	8	_
8	nerd	_	N	N	_	6	_
9	!	_	,	,	_	-1	_
10	Here's	_	L	L	_	0	_
11	a	_	D	D	_	12	_
12	roundup	_	N	N	_	10	_
13	of	_	P	P	_	12	_
14	the	_	D	D	_	16	_
15	new	_	A	A	_	16	_
16	#Fantastic4	_	^	^	_	13	_
17	,	_	,	,	_	-1	_
18	#SupermanVBatman	_	^	^	_	0	_
19	,	_	,	,	_	-1	_
20	&	_	&	&	_	-1	_
21	#StarWars	_	#	#	_	-1	_
22	trailers	_	N	N	_	0	_
23	!	_	,	,	_	-1	_
24	-->	_	G	G	_	-1	_
25	http://t.co/M3rjwHUYzl	_	U	U	_	-1	_

1	#StarWars	_	#	#	_	-1	_
2	:	_	,	,	_	-1	_
3	We	_	O	O	_	4	_
4	hop	_	V	V	_	0	_
5	into	_	P	P	_	4	_
6	a	_	D	D	_	7	_
7	snowspeeder	_	N	N	_	8	CONJ
8	and	_	&	&	_	5	_
9	cover	_	V	V	_	8	CONJ
10	the	_	D	D	_	11	_
11	Rebel	_	N	N	_	9	_
12	escape	_	V	V	_	11	_
13	in	_	P	P	_	12	_
14	Rouge	_	^	^	_	15	MWE
15	Squadron	_	^	^	_	13	_
16	http://t.co/7m5JCoBbVR	_	U	U	_	-1	_
17	http://t.co/NFIjPEwPEQ	_	U	U	_	-1	_

1	In	_	P	P	_	0	_
2	your	_	D	D	_	3	_
3	face	_	N	N	_	1	_
4	!	_	,	,	_	-1	_
5	#StarWars	_	#	#	_	-1	_
6	#Disneyland	_	#	#	_	-1	_
7	#peoplegoincrazy	_	#	#	_	-1	_
8	https://t.co/yj8WUj9SpN	_	U	U	_	-1	_

1	For	_	P	P	_	0	_
2	all	_	D	D	_	1	_
3	of	_	P	P	_	2	_
4	us	_	O	O	_	3	_
5	who	_	O	O	_	6	_
6	needs	_	V	V	_	4	_
7	a	_	D	D	_	9	_
8	simple	_	A	A	_	9	_
9	reminder	_	N	N	_	6	_
10	of	_	P	P	_	9	_
11	how	_	R	R	_	10	_
12	to	_	P	P	_	6	_
13	get	_	V	V	_	12	_
14	the	_	D	D	_	15	_
15	job	_	N	N	_	13	_
16	done	_	V	V	_	13	_
17	!	_	,	,	_	-1	_
18	Thanks	_	N	N	_	0	_
19	,	_	,	,	_	-1	_
20	Yoda	_	^	^	_	0	_
21	!!	_	,	,	_	-1	_
22	#inspirationalquotes	_	#	#	_	-1	_
23	#StarWars	_	#	#	_	-1	_
24	http://t.co/nHUyI2VDkr	_	U	U	_	-1	_

1	Write	_	V	V	_	0	_
2	about	_	P	P	_	1	_
3	#StarWars	_	^	^	_	2	_
4	,	_	,	,	_	-1	_
5	win	_	V	V	_	0	_
6	a	_	D	D	_	8	_
7	custom	_	A	A	_	8	_
8	lightsaber	_	N	N	_	5	_
9	!	_	,	,	_	-1	_
10	Details	_	N	N	_	11	_
11	here	_	R	R	_	5	_
12	:	_	,	,	_	-1	_
13	http://t.co/7H28SHmIsq	_	U	U	_	-1	_
14	http://t.co/qnNAqD9JU5	_	U	U	_	-1	_

1	#StarWars	_	#	#	_	-1	_
2	:	_	,	,	_	-1	_
3	Who	_	O	O	_	4	_
4	is	_	V	V	_	0	_
5	Rey	_	^	^	_	4	_
6	?	_	,	,	_	-1	_
7	http://t.co/3rRJ89Md0s	_	U	U	_	-1	_
8	http://t.co/UuzW7pE5T9	_	U	U	_	-1	_

1	Kids	_	N	N	_	0	_
2	!	_	,	,	_	-1	_
3	#DarthVader	_	#	#	_	-1	_
4	#StarWars	_	#	#	_	-1	_
5	http://t.co/hqaXD7hqMY	_	U	U	_	-1	_

1	Watch	_	V	V	_	0	_
2	the	_	D	D	_	3	_
3	original	_	A	A	_	1	_
4	'	_	,	,	_	-1	_
5	The	_	D	D	_	6	_
6	Making	_	N	N	_	0	_
7	of	_	P	P	_	6	_
8	Star	_	^	^	_	9	_
9	Wars	_	N	N	_	7	_
10	'	_	,	,	_	-1	_
11	documentary	_	N	N	_	0	_
12	:	_	,	,	_	-1	_
13	http://t.co/K6U2gtQ7fV	_	U	U	_	-1	_
14	#StarWars	_	#	#	_	-1	_
15	http://t.co/xLnaY7hfoq	_	U	U	_	-1	_

1	The	_	D	D	_	5	_
2	#StarWars	_	^	^	_	4	MWE
3	-themed	_	^	^	_	4	MWE
4	#R2D2	_	^	^	_	5	_
5	jet	_	N	N	_	8	_
6	from	_	P	P	_	5	_
7	@FlyANA_Official	_	@	@	_	6	_
8	is	_	V	V	_	0	_
9	the	_	D	D	_	10	_
10	Boeing	_	^	^	_	8	_
11	787	_	$	$	_	10	MWE
12	you're	_	L	L	_	8	_
13	looking	_	V	V	_	12	_
14	for	_	P	P	_	13	_
15	http://t.co/EIpMgCeRQx	_	U	U	_	-1	_
16	http://t.co/LrLzfPH0JR	_	U	U	_	-1	_

1	#StarWars	_	#	#	_	-1	_
2	:	_	,	,	_	-1	_
3	We	_	O	O	_	4	_
4	steal	_	V	V	_	0	_
5	the	_	D	D	_	8	_
6	Death	_	N	N	_	8	_
7	Star	_	N	N	_	8	MWE
8	plans	_	N	N	_	4	_
9	http://t.co/aUCMBFqpCY	_	U	U	_	-1	_
10	http://t.co/pmBQyYCVU6	_	U	U	_	-1	_

1	Obi-Wan	_	^	^	_	3	_
2	never	_	R	R	_	3	_
3	told	_	V	V	_	0	_
4	you	_	O	O	_	3	_
5	what	_	O	O	_	6	_
6	happened	_	V	V	_	3	_
7	to	_	P	P	_	6	_
8	your	_	D	D	_	9	_
9	mattress	_	N	N	_	7	_
10	#StarWars	_	#	#	_	-1	_
11	http://t.co/GaTwZ5fNnI	_	U	U	_	-1	_

1	Nerd	_	N	N	_	2	_
2	demigod	_	N	N	_	0	_
3	,	_	,	,	_	-1	_
4	Neil	_	^	^	_	6	MWE
5	deGrasse	_	^	^	_	6	MWE
6	Tyson	_	^	^	_	0	_
7	,	_	,	,	_	-1	_
8	weighs	_	V	V	_	0	_
9	in	_	T	T	_	8	MWE
10	on	_	P	P	_	8	_
11	the	_	D	D	_	13	_
12	#StarTrek	_	^	^	_	13	MWE
13	vs	_	^	^	_	10	_
14	.	_	,	,	_	-1	_
15	#StarWars	_	#	#	_	-1	_
16	debate	_	N	N	_	0	_
17	http://t.co/NYwoPdbjvR	_	U	U	_	-1	_
18	http://t.co/QWKTIMqx8c	_	U	U	_	-1	_

1	Could	_	V	V	_	0	_
2	#StarWars	_	#	#	_	-1	_
3	Open	_	V	V	_	1	_
4	at	_	P	P	_	3	_
5	$500	_	$	$	_	6	_
6	Million	_	N	N	_	4	_
7	?	_	,	,	_	-1	_
8	The	_	D	D	_	9	_
9	Force	_	N	N	_	10	_
10	Is	_	V	V	_	0	_
11	Strong	_	A	A	_	10	_
12	http://t.co/G69oUTzzue	_	U	U	_	-1	_
13	http://t.co/IcD2VFCVY5	_	U	U	_	-1	_

1	In	_	P	P	_	0	_
2	your	_	D	D	_	3	_
3	face	_	N	N	_	1	_
4	!	_	,	,	_	-1	_
5	#StarWars	_	#	#	_	-1	_
6	#Disneyland	_	#	#	_	-1	_
7	#peoplegoincrazy	_	#	#	_	-1	_
8	https://t.co/yj8WUj9SpN	_	U	U	_	-1	_

1	Happy	_	A	A	_	2	_
2	Birthday	_	N	N	_	0	_
3	to	_	P	P	_	2	_
4	@GeorgeTakei	_	@	@	_	-1	_
5	-	_	,	,	_	-1	_
6	Hikaru	_	^	^	_	7	MWE
7	Sulu	_	^	^	_	3	_
8	from	_	P	P	_	0	_
9	#StarTrek	_	^	^	_	10	MWE
10	#TOS	_	^	^	_	8	_
11	!	_	,	,	_	-1	_
12	Learn	_	V	V	_	0	_
13	more	_	R	R	_	12	_
14	:	_	,	,	_	-1	_
15	http://t.co/1qbyNA1JPl	_	U	U	_	-1	_
16	http://t.co/SG5XPQTuLV	_	U	U	_	-1	_

1	Happy	_	A	A	_	2	_
2	Birthday	_	N	N	_	0	_
3	to	_	P	P	_	2	_
4	@IggyPop	_	@	@	_	-1	_
5	-	_	,	,	_	-1	_
6	Yelgrun	_	^	^	_	0	_
7	in	_	P	P	_	6	_
8	#StarTrek	_	^	^	_	9	MWE
9	#DS9	_	^	^	_	7	_
10	!	_	,	,	_	-1	_
11	Learn	_	V	V	_	0	_
12	more	_	R	R	_	11	_
13	:	_	,	,	_	-1	_
14	http://t.co/Hy2KswnPTi	_	U	U	_	-1	_
15	http://t.co/Gt6C0JjB1U	_	U	U	_	-1	_

1	Nerd	_	N	N	_	2	_
2	demigod	_	N	N	_	0	_
3	,	_	,	,	_	-1	_
4	Neil	_	^	^	_	6	MWE
5	deGrasse	_	^	^	_	6	MWE
6	Tyson	_	^	^	_	0	_
7	,	_	,	,	_	-1	_
8	weighs	_	V	V	_	0	_
9	in	_	T	T	_	8	MWE
10	on	_	P	P	_	8	_
11	the	_	D	D	_	13	_
12	#StarTrek	_	^	^	_	13	MWE
13	vs	_	^	^	_	10	_
14	.	_	,	,	_	-1	_
15	#StarWars	_	#	#	_	-1	_
16	debate	_	N	N	_	0	_
17	http://t.co/NYwoPdbjvR	_	U	U	_	-1	_
18	http://t.co/QWKTIMqx8c	_	U	U	_	-1	_

1	Now	_	R	R	_	3	_
2	you	_	O	O	_	3	_
3	can	_	V	V	_	0	_
4	watch	_	V	V	_	3	_
5	28	_	$	$	_	6	_
6	seasons	_	N	N	_	4	_
7	of	_	P	P	_	6	_
8	#StarTrek	_	^	^	_	7	_
9	anytime	_	R	R	_	4	_
10	,	_	,	,	_	-1	_
11	anywhere	_	R	R	_	3	_
12	,	_	,	,	_	-1	_
13	ad-free	_	A	A	_	0	_
14	!	_	,	,	_	-1	_
15	Try	_	V	V	_	0	_
16	1	_	$	$	_	17	_
17	week	_	N	N	_	15	_
18	free	_	A	A	_	15	_
19	:	_	,	,	_	-1	_
20	http://t.co/4ULHlnUAZR	_	U	U	_	-1	_
21	http://t.co/JANtzdvWF5	_	U	U	_	-1	_

1	Premiering	_	V	V	_	8	CONJ
2	11pm	_	$	$	_	3	_
3	ET	_	N	N	_	1	_
4	@natgeochannel	_	@	@	_	-1	_
5	#StarTalkTV	_	#	#	_	-1	_
6	,	_	,	,	_	-1	_
7	@NeilTyson	_	@	@	_	-1	_
8	&	_	&	&	_	0	_
9	I	_	O	O	_	10	_
10	talk	_	V	V	_	8	CONJ
11	#StarTrek	_	^	^	_	10	_
12	,	_	,	,	_	-1	_
13	acting	_	V	V	_	15	CONJ
14	,	_	,	,	_	-1	_
15	and	_	&	&	_	0	_
16	the	_	D	D	_	18	_
17	final	_	A	A	_	18	_
18	frontier	_	N	N	_	15	CONJ
19	.	_	,	,	_	-1	_
20	http://t.co/XO5Nzh38JJ	_	U	U	_	-1	_

1	Kate	_	^	^	_	2	MWE
2	Mulgrew	_	^	^	_	3	_
3	is	_	V	V	_	0	_
4	open	_	A	A	_	3	_
5	to	_	P	P	_	4	_
6	reprising	_	V	V	_	5	_
7	her	_	D	D	_	8	_
8	role	_	N	N	_	6	_
9	as	_	P	P	_	8	_
10	Captain	_	^	^	_	11	MWE
11	Janeway	_	^	^	_	9	_
12	:	_	,	,	_	-1	_
13	http://t.co/DL1MMEz2Zn	_	U	U	_	-1	_
14	#StarTrek	_	#	#	_	-1	_
15	http://t.co/y2WrO5mXhR	_	U	U	_	-1	_

1	Wow	_	!	!	_	0	_
2	!	_	,	,	_	-1	_
3	Total	_	A	A	_	5	_
4	#StarTrek	_	#	#	_	-1	_
5	day	_	N	N	_	0	_
6	!	_	,	,	_	-1	_
7	Happy	_	A	A	_	8	_
8	Bday	_	N	N	_	0	_
9	,	_	,	,	_	-1	_
10	@GeorgeTakei	_	@	@	_	-1	_
11	!	_	,	,	_	-1	_

1	#AgentMay	_	#	#	_	-1	_
2	'	_	,	,	_	-1	_
3	s	_	G	G	_	0	_
4	gift	_	N	N	_	3	_
5	:	_	,	,	_	-1	_
6	Take	_	V	V	_	0	_
7	#Sulu	_	^	^	_	6	_
8	4	_	P	P	_	6	_
9	a	_	D	D	_	10	_
10	joyride	_	N	N	_	8	_
11	on	_	P	P	_	10	_
12	#AgentsofSHIELD	_	^	^	_	13	MWE
13	Quinjet	_	^	^	_	11	_
14	!	_	,	,	_	-1	_
15	Cool	_	A	A	_	0	_
16	,	_	,	,	_	-1	_
17	eh	_	!	!	_	0	_
18	?	_	,	,	_	-1	_
19	Lol	_	!	!	_	0	_

1	Happy	_	A	A	_	2	_
2	Birthday	_	N	N	_	0	_
3	to	_	P	P	_	2	_
4	Clint	_	^	^	_	5	MWE
5	Howard	_	^	^	_	3	_
6	-	_	,	,	_	-1	_
7	Muk	_	^	^	_	0	_
8	from	_	P	P	_	7	_
9	#StarTrek	_	^	^	_	10	MWE
10	#ENT	_	^	^	_	8	_
11	!	_	,	,	_	-1	_
12	Learn	_	V	V	_	0	_
13	more	_	R	R	_	12	_
14	:	_	,	,	_	-1	_
15	http://t.co/Ab5vQ2m1QB	_	U	U	_	-1	_
16	http://t.co/Kccv8afHOG	_	U	U	_	-1	_

1	Catch	_	V	V	_	0	_
2	George	_	^	^	_	1	_
3	on	_	P	P	_	1	_
4	#StarTalkTV	_	^	^	_	3	_
5	tonight	_	R	R	_	1	_
6	11pm	_	$	$	_	5	_
7	!	_	,	,	_	-1	_
8	RT	_	~	~	_	-1	_
9	@StarTrek	_	@	@	_	-1	_
10	:	_	~	~	_	-1	_
11	Happy	_	A	A	_	12	_
12	Birthday	_	N	N	_	0	_
13	@GeorgeTakei	_	@	@	_	-1	_
14	-	_	,	,	_	-1	_
15	Hikaru	_	^	^	_	16	MWE
16	Sulu	_	^	^	_	0	_
17	from	_	P	P	_	16	_
18	#StarTrek	_	^	^	_	17	_
19	!	_	,	,	_	-1	_
20	http://t.co/TReIi37MUb	_	U	U	_	-1	_

1	#TrekTriviaTuesday	_	#	#	_	-1	_
2	:	_	,	,	_	-1	_
3	The	_	D	D	_	6	_
4	USS	_	^	^	_	6	MWE
5	Enterprise	_	^	^	_	6	MWE
6	NCC	_	^	^	_	8	_
7	1701-E	_	$	$	_	6	MWE
8	is	_	V	V	_	0	_
9	what	_	O	O	_	8	_
10	class	_	N	N	_	8	_
11	of	_	P	P	_	10	_
12	ship	_	N	N	_	11	_
13	?	_	,	,	_	-1	_
14	#StarTrek	_	#	#	_	-1	_
15	http://t.co/D34JVYydX3	_	U	U	_	-1	_

1	Enter	_	V	V	_	0	_
2	the	_	D	D	_	3	_
3	#StarTrek	_	^	^	_	1	_
4	#LasVegas	_	#	#	_	-1	_
5	#sweeps	_	#	#	_	-1	_
6	to	_	P	P	_	1	_
7	#win	_	V	V	_	6	_
8	a	_	D	D	_	9	_
9	trip	_	N	N	_	7	_
10	to	_	P	P	_	7	_
11	#STLV	_	^	^	_	10	_
12	http://t.co/tYbGQvUcCj	_	U	U	_	-1	_
13	@CreationEnt	_	@	@	_	-1	_
14	@thinkgeek	_	@	@	_	-1	_
15	http://t.co/MG7imKDsGE	_	U	U	_	-1	_

1	Lanna	_	^	^	_	2	CONJ
2	and	_	&	&	_	0	_
3	Number	_	N	N	_	2	CONJ
4	One	_	$	$	_	3	_
5	in	_	P	P	_	4	_
6	Vegas	_	^	^	_	5	_
7	?	_	,	,	_	-1	_
8	Make	_	V	V	_	0	_
9	it	_	O	O	_	8	_
10	so	_	R	R	_	8	_
11	!	_	,	,	_	-1	_
12	http://t.co/RgtrC6WEwC	_	U	U	_	-1	_
13	#StarTrek	_	#	#	_	-1	_
14	@CreationEnt	_	@	@	_	-1	_
15	http://t.co/QoSWBRxpPH	_	U	U	_	-1	_

1	Think	_	V	V	_	0	_
2	of	_	P	P	_	1	_
3	them	_	O	O	_	2	_
4	as	_	P	P	_	3	_
5	the	_	D	D	_	6	_
6	Giles	_	^	^	_	4	_
7	to	_	P	P	_	1	_
8	your	_	D	D	_	10	_
9	Buffy--It's	_	Z	Z	_	10	_
10	time	_	N	N	_	7	_
11	to	_	P	P	_	10	_
12	vote	_	V	V	_	11	_
13	in	_	P	P	_	12	_
14	the	_	D	D	_	17	_
15	new	_	A	A	_	17	_
16	#StarTrek	_	^	^	_	17	_
17	poll	_	N	N	_	13	_
18	!	_	,	,	_	-1	_
19	http://t.co/oU6c1NYcZ9	_	U	U	_	-1	_
20	http://t.co/4AdtNfewvs	_	U	U	_	-1	_

1	Don't	_	V	V	_	0	_
2	miss	_	V	V	_	1	_
3	out	_	T	T	_	2	MWE
4	!	_	,	,	_	-1	_
5	Our	_	D	D	_	7	_
6	fan-created	_	N	N	_	7	_
7	design	_	N	N	_	0	_
8	special	_	A	A	_	9	_
9	ends	_	N	N	_	7	_
10	12amPT	_	$	$	_	11	_
11	tonight	_	N	N	_	7	_
12	.	_	,	,	_	-1	_
13	Shop	_	N	N	_	0	_
14	now	_	R	R	_	7	_
15	:	_	,	,	_	-1	_
16	http://t.co/3dvgQaAaX4	_	U	U	_	-1	_
17	#StarTrek	_	#	#	_	-1	_
18	http://t.co/dO185Rile9	_	U	U	_	-1	_

1	New	_	A	A	_	2	_
2	dates	_	N	N	_	4	_
3	just	_	R	R	_	4	_
4	announced	_	V	V	_	0	_
5	for	_	P	P	_	4	_
6	#StarTrek	_	^	^	_	5	_
7	:	_	,	,	_	-1	_
8	Live	_	V	V	_	0	_
9	in	_	P	P	_	8	_
10	Concert	_	N	N	_	9	_
11	-	_	,	,	_	-1	_
12	it's	_	L	L	_	0	_
13	a	_	D	D	_	15	_
14	can't-miss	_	N	N	_	15	_
15	experience	_	N	N	_	12	_
16	!	_	,	,	_	-1	_
17	http://t.co/HJpRnPAzG9	_	U	U	_	-1	_
18	http://t.co/dwwFHnPIwm	_	U	U	_	-1	_

1	It's	_	L	L	_	0	_
2	a	_	D	D	_	4	_
3	great	_	A	A	_	4	_
4	time	_	N	N	_	1	_
5	to	_	P	P	_	4	_
6	be	_	V	V	_	5	_
7	a	_	D	D	_	8	_
8	nerd	_	N	N	_	6	_
9	!	_	,	,	_	-1	_
10	Here's	_	L	L	_	0	_
11	a	_	D	D	_	12	_
12	roundup	_	N	N	_	10	_
13	of	_	P	P	_	12	_
14	the	_	D	D	_	16	_
15	new	_	A	A	_	16	_
16	#Fantastic4	_	^	^	_	13	_
17	,	_	,	,	_	-1	_
18	#SupermanVBatman	_	^	^	_	0	_
19	,	_	,	,	_	-1	_
20	&	_	&	&	_	-1	_
21	#StarWars	_	#	#	_	-1	_
22	trailers	_	N	N	_	0	_
23	!	_	,	,	_	-1	_
24	-->	_	G	G	_	-1	_
25	http://t.co/M3rjwHUYzl	_	U	U	_	-1	_

1	The	_	D	D	_	5	_
2	#StarWars	_	^	^	_	4	MWE
3	-themed	_	^	^	_	4	MWE
4	#R2D2	_	^	^	_	5	_
5	jet	_	N	N	_	8	_
6	from	_	P	P	_	5	_
7	@FlyANA_Official	_	@	@	_	6	_
8	is	_	V	V	_	0	_
9	the	_	D	D	_	10	_
10	Boeing	_	^	^	_	8	_
11	787	_	$	$	_	10	MWE
12	you're	_	L	L	_	8	_
13	looking	_	V	V	_	12	_
14	for	_	P	P	_	13	_
15	http://t.co/EIpMgCeRQx	_	U	U	_	-1	_
16	http://t.co/LrLzfPH0JR	_	U	U	_	-1	_

1	RT	_	V	V	_	0	_
2	if	_	P	P	_	1	_
3	you	_	O	O	_	4	_
4	want	_	V	V	_	2	_
5	to	_	P	P	_	4	_
6	fly	_	V	V	_	5	_
7	on	_	P	P	_	6	_
8	the	_	D	D	_	10	_
9	#R2D2	_	^	^	_	10	_
10	plane	_	N	N	_	7	_
11	from	_	P	P	_	6	_
12	@FlyANA_official	_	@	@	_	-1	_
13	:	_	~	~	_	-1	_
14	http://t.co/TvjqmKE64o	_	U	U	_	-1	_
15	http://t.co/PgxqHncFpD	_	U	U	_	-1	_

1	Working	_	V	V	_	0	_
2	on	_	P	P	_	1	_
3	the	_	D	D	_	5	_
4	ORIGINAL	_	A	A	_	5	_
5	#R2D2	_	^	^	_	2	_
6	!	_	,	,	_	-1	_
7	You	_	O	O	_	8	_
8	can	_	V	V	_	0	_
9	see	_	V	V	_	8	_
10	the	_	D	D	_	11	_
11	smile	_	N	N	_	9	_
12	I'm	_	L	L	_	8	_
13	failing	_	V	V	_	12	_
14	to	_	P	P	_	13	_
15	suppress	_	V	V	_	14	_
16	.	_	,	,	_	-1	_
17	#TBT	_	#	#	_	-1	_
18	http://t.co/yii66p1Ghr	_	U	U	_	-1	_

1	The	_	D	D	_	5	_
2	#StarWars	_	^	^	_	4	MWE
3	-themed	_	^	^	_	4	MWE
4	#R2D2	_	^	^	_	5	_
5	jet	_	N	N	_	0	_
6	from	_	P	P	_	5	_
7	@FlyANA_Official	_	@	@	_	8	_
8	is	_	V	V	_	6	_
9	the	_	D	D	_	10	_
10	Boeing	_	^	^	_	8	_
11	787	_	$	$	_	10	MWE
12	you're	_	L	L	_	0	_
13	looking	_	V	V	_	12	_
14	for	_	P	P	_	13	_
15	http://t.co/n1WMvgIQbW	_	U	U	_	-1	_
16	http://t.co/m2Uk62g7Xk	_	U	U	_	-1	_

1	Japan	_	^	^	_	2	_
2	Airline	_	N	N	_	3	_
3	announces	_	V	V	_	0	_
4	plans	_	N	N	_	3	_
5	for	_	P	P	_	4	_
6	an	_	D	D	_	9	_
7	#R2D2	_	^	^	_	9	_
8	themed	_	^	^	_	9	_
9	airplane	_	N	N	_	5	_
10	.	_	,	,	_	-1	_
11	When	_	R	R	_	12	_
12	asked	_	V	V	_	0	_
13	for	_	P	P	_	12	_
14	a	_	D	D	_	15	_
15	comment	_	N	N	_	13	_
16	R2	_	^	^	_	17	_
17	said	_	V	V	_	0	_
18	:	_	,	,	_	-1	_
19	Beep	_	!	!	_	0	_
20	Beep	_	!	!	_	0	_
21	Bop	_	^	^	_	23	MWE
22	Beep	_	^	^	_	23	MWE
23	Bop	_	^	^	_	17	_
24	.	_	,	,	_	-1	_

1	#R2D2	_	^	^	_	2	_
2	has	_	V	V	_	0	_
3	made	_	V	V	_	2	_
4	an	_	D	D	_	5	_
5	entrance	_	N	N	_	3	_
6	!	_	,	,	_	-1	_
7	#StarWarsCelebration	_	#	#	_	-1	_
8	http://t.co/FTY9O4WcJo	_	U	U	_	-1	_

1	Check	_	V	V	_	0	_
2	out	_	T	T	_	1	MWE
3	this	_	O	O	_	4	_
4	wreckin	_	V	V	_	1	_
5	'	_	,	,	_	-1	_
6	crew	_	N	N	_	0	_
7	!	_	,	,	_	-1	_
8	#StarWarsCelebration	_	#	#	_	-1	_
9	#BB8	_	#	#	_	-1	_
10	#R2D2	_	#	#	_	-1	_
11	http://t.co/wYqCZNEmSy	_	U	U	_	-1	_
12	http://t.co/JggCSnZ45Q	_	U	U	_	-1	_

1	In	_	P	P	_	0	_
2	fall	_	^	^	_	1	_
3	2015	_	$	$	_	2	MWE
4	@FlyANA_official	_	@	@	_	5	_
5	adds	_	V	V	_	0	_
6	a	_	D	D	_	8	_
7	#StarWars	_	^	^	_	8	MWE
8	Dreamliner	_	^	^	_	5	_
9	to	_	P	P	_	5	_
10	its	_	L	L	_	0	_
11	fleet	_	N	N	_	10	_
12	!	_	,	,	_	-1	_

1	#StarAlliance	_	#	#	_	-1	_
2	#R2D2	_	#	#	_	-1	_
3	http://t.co/EGteTIAt7x	_	U	U	_	-1	_
4	http://t.co/IiALLz23q3	_	U	U	_	-1	_

1	Pictures	_	N	N	_	0	_
2	of	_	P	P	_	1	_
3	the	_	D	D	_	6	_
4	@FlyANA_official	_	@	@	_	6	_
5	new	_	A	A	_	6	_
6	dreamliner	_	N	N	_	2	_
7	.	_	,	,	_	-1	_
8	#R2D2	_	#	#	_	-1	_
9	#StarWarsTheForceAwakens	_	#	#	_	-1	_
10	#staralliance	_	#	#	_	-1	_
11	http://t.co/EGteTIAt7x	_	U	U	_	-1	_
12	http://t.co/nIutNZWEwr	_	U	U	_	-1	_

1	.	_	,	,	_	-1	_
2	@starwars_facts	_	@	@	_	-1	_
3	#TheForceAwakens	_	#	#	_	-1	_
4	at	_	P	P	_	0	_
5	#StarWarsCelebration	_	^	^	_	8	CONJ
6	#Chewbacca	_	^	^	_	8	CONJ
7	#r2d2	_	^	^	_	8	CONJ
8	&	_	&	&	_	4	_
9	#C3PO	_	^	^	_	8	CONJ
10	debuted	_	V	V	_	8	CONJ
11	D&M	_	N	N	_	10	_
12	http://t.co/klGuBjPD87	_	U	U	_	-1	_
13	http://t.co/29bfYXhDZ2	_	U	U	_	-1	_

1	The	_	D	D	_	5	_
2	#StarWars	_	^	^	_	4	MWE
3	-themed	_	^	^	_	4	MWE
4	#R2D2	_	^	^	_	5	_
5	jet	_	N	N	_	0	_
6	from	_	P	P	_	5	_
7	@FlyANA_Official	_	@	@	_	8	_
8	is	_	V	V	_	6	_
9	the	_	D	D	_	10	_
10	Boeing	_	^	^	_	8	_
11	787	_	$	$	_	10	MWE
12	you're	_	L	L	_	0	_
13	looking	_	V	V	_	12	_
14	for	_	P	P	_	13	_
15	:	_	,	,	_	-1	_
16	http://t.co/4aZdTqa0Ix	_	U	U	_	-1	_
17	http://t.co/Obc03KKvSq	_	U	U	_	-1	_

1	Bring	_	V	V	_	0	_
2	#R2D2	_	^	^	_	1	_
3	with	_	P	P	_	1	_
4	you	_	O	O	_	3	_
5	on	_	P	P	_	1	_
6	every	_	D	D	_	7	_
7	car	_	N	N	_	5	_
8	ride	_	V	V	_	0	_
9	!	_	,	,	_	-1	_
10	#TheForceAwakens	_	#	#	_	-1	_
11	http://t.co/BOrWFXTnEY	_	U	U	_	-1	_
12	http://t.co/iQuAW05i8p	_	U	U	_	-1	_

1	It's	_	L	L	_	0	_
2	a	_	D	D	_	3	_
3	bird	_	N	N	_	1	_
4	,	_	,	,	_	-1	_
5	it's	_	L	L	_	0	_
6	a	_	D	D	_	7	_
7	plane	_	N	N	_	5	_
8	,	_	,	,	_	-1	_
9	it's	_	L	L	_	0	_
10	#R2D2	_	^	^	_	9	_
11	!	_	,	,	_	-1	_
12	@mattcargill	_	@	@	_	-1	_
13	covers	_	V	V	_	9	_
14	reaction	_	N	N	_	13	_
15	to	_	P	P	_	14	_
16	#TheForceAwakens	_	^	^	_	15	_
17	http://t.co/iZT9hcuEST	_	U	U	_	-1	_
18	#NX	_	#	#	_	-1	_
19	http://t.co/k3I5PQNwb5	_	U	U	_	-1	_

1	Kids	_	N	N	_	0	_
2	!	_	,	,	_	-1	_
3	#DarthVader	_	#	#	_	-1	_
4	#StarWars	_	#	#	_	-1	_
5	http://t.co/hqaXD7hqMY	_	U	U	_	-1	_

1	Old	_	A	A	_	2	_
2	ROTJ	_	^	^	_	3	MWE
3	Promo	_	^	^	_	0	_
4	#DarthVader	_	#	#	_	-1	_
5	#StarWars	_	#	#	_	-1	_
6	http://t.co/9AcdcLLoVB	_	U	U	_	-1	_

1	Join	_	V	V	_	0	_
2	me	_	O	O	_	1	_
3	,	_	,	,	_	-1	_
4	and	_	&	&	_	0	_
5	I	_	O	O	_	6	_
6	will	_	V	V	_	4	CONJ
7	complete	_	V	V	_	6	_
8	your	_	D	D	_	9	_
9	training	_	N	N	_	7	_
10	#DarthVader	_	#	#	_	-1	_
11	#StarWars	_	#	#	_	-1	_
12	http://t.co/mzC4rgV7np	_	U	U	_	-1	_

1	Cute	_	A	A	_	3	_
2	family	_	N	N	_	3	_
3	photo	_	N	N	_	0	_
4	!	_	,	,	_	-1	_
5	#starwars	_	#	#	_	-1	_
6	#darthvader	_	#	#	_	-1	_
7	#lukeskywalker	_	#	#	_	-1	_
8	#princessleia	_	#	#	_	-1	_
9	#markhamill	_	#	#	_	-1	_
10	#car	_	#	#	_	-1	_
11	http://t.co/txexYTSXR7	_	U	U	_	-1	_
12	http://t.co/kxixW4HSax	_	U	U	_	-1	_

1	What	_	O	O	_	2	_
2	do	_	V	V	_	0	_
3	you	_	O	O	_	2	_
4	think	_	V	V	_	2	_
5	of	_	P	P	_	4	_
6	the	_	D	D	_	8	_
7	Vader	_	^	^	_	8	_
8	helmet	_	N	N	_	5	_
9	in	_	P	P	_	8	_
10	the	_	D	D	_	12	_
11	teaser	_	N	N	_	12	_
12	trailer	_	N	N	_	9	_
13	for	_	P	P	_	12	_
14	The	_	D	D	_	15	_
15	Force	_	N	N	_	13	_
16	Awakens	_	V	V	_	0	_
17	?	_	,	,	_	-1	_
18	#DarthVader	_	#	#	_	-1	_
19	#TheForceAwakens	_	#	#	_	-1	_
20	http://t.co/466iSlB2Qi	_	U	U	_	-1	_

1	That	_	D	D	_	2	_
2	helmet	_	N	N	_	3	_
3	looks	_	V	V	_	0	_
4	familiar	_	A	A	_	3	_
5	!	_	,	,	_	-1	_
6	https://t.co/GFOLdy49Oo	_	U	U	_	-1	_
7	#darthvader	_	#	#	_	-1	_
8	#starwars	_	#	#	_	-1	_

1	If	_	P	P	_	0	_
2	#DarthVader	_	^	^	_	3	_
3	was	_	V	V	_	1	_
4	a	_	D	D	_	5	_
5	blazer	_	N	N	_	3	_
6	.	_	,	,	_	-1	_
7	#K5	_	#	#	_	-1	_
8	#Chevy	_	#	#	_	-1	_
9	#LS3	_	#	#	_	-1	_
10	#Blazer	_	#	#	_	-1	_
11	delmoxxx	_	G	G	_	-1	_
12	@rigidnation	_	@	@	_	-1	_
13	https://t.co/de7v90XT05	_	U	U	_	-1	_

1	#TBT	_	#	#	_	-1	_
2	Dinner	_	N	N	_	3	_
3	party	_	N	N	_	0	_
4	on	_	P	P	_	3	_
5	Dagobah	_	^	^	_	4	_
6	#DarthVader	_	#	#	_	-1	_
7	#StarWars	_	#	#	_	-1	_
8	http://t.co/K9EI9hpr4u	_	U	U	_	-1	_

1	Your	_	D	D	_	2	_
2	day	_	N	N	_	3	_
3	needed	_	V	V	_	0	_
4	this	_	D	D	_	6	_
5	family	_	N	N	_	6	_
6	reunion	_	N	N	_	3	_
7	.	_	,	,	_	-1	_
8	#StarWars	_	#	#	_	-1	_
9	http://t.co/yv8YYSzYuC	_	U	U	_	-1	_

1	More	_	A	A	_	0	_
2	#StarWars	_	#	#	_	-1	_
3	:	_	,	,	_	-1	_
4	Battlefront	_	N	N	_	0	_
5	[	_	,	,	_	-1	_
6	RP	_	G	G	_	-1	_
7	]	_	,	,	_	-1	_
8	details	_	N	N	_	9	_
9	included	_	V	V	_	0	_
10	in	_	P	P	_	9	_
11	a	_	D	D	_	12	_
12	Q&A	_	N	N	_	10	_
13	with	_	P	P	_	12	_
14	the	_	D	D	_	16	_
15	games	_	N	N	_	16	_
16	developer	_	N	N	_	13	_
17	:	_	,	,	_	-1	_
18	http://t.co/y49R8tt8U8	_	U	U	_	-1	_
19	http://t.co/viGlVBGb88	_	U	U	_	-1	_

1	It's	_	L	L	_	0	_
2	a	_	D	D	_	4	_
3	great	_	A	A	_	4	_
4	time	_	N	N	_	1	_
5	to	_	P	P	_	4	_
6	be	_	V	V	_	5	_
7	a	_	D	D	_	8	_
8	nerd	_	N	N	_	6	_
9	!	_	,	,	_	-1	_
10	Here's	_	L	L	_	0	_
11	a	_	D	D	_	12	_
12	roundup	_	N	N	_	10	_
13	of	_	P	P	_	12	_
14	the	_	D	D	_	16	_
15	new	_	A	A	_	16	_
16	#Fantastic4	_	^	^	_	13	_
17	,	_	,	,	_	-1	_
18	#SupermanVBatman	_	^	^	_	0	_
19	,	_	,	,	_	-1	_
20	&	_	&	&	_	-1	_
21	#StarWars	_	#	#	_	-1	_
22	trailers	_	N	N	_	0	_
23	!	_	,	,	_	-1	_
24	-->	_	G	G	_	-1	_
25	http://t.co/M3rjwHUYzl	_	U	U	_	-1	_

1	#StarWars	_	#	#	_	-1	_
2	:	_	,	,	_	-1	_
3	We	_	O	O	_	4	_
4	hop	_	V	V	_	0	_
5	into	_	P	P	_	4	_
6	a	_	D	D	_	7	_
7	snowspeeder	_	N	N	_	8	CONJ
8	and	_	&	&	_	5	_
9	cover	_	V	V	_	8	CONJ
10	the	_	D	D	_	11	_
11	Rebel	_	N	N	_	9	_
12	escape	_	V	V	_	11	_
13	in	_	P	P	_	12	_
14	Rouge	_	^	^	_	15	MWE
15	Squadron	_	^	^	_	13	_
16	http://t.co/7m5JCoBbVR	_	U	U	_	-1	_
17	http://t.co/NFIjPEwPEQ	_	U	U	_	-1	_

1	In	_	P	P	_	0	_
2	your	_	D	D	_	3	_
3	face	_	N	N	_	1	_
4	!	_	,	,	_	-1	_
5	#StarWars	_	#	#	_	-1	_
6	#Disneyland	_	#	#	_	-1	_
7	#peoplegoincrazy	_	#	#	_	-1	_
8	https://t.co/yj8WUj9SpN	_	U	U	_	-1	_

1	For	_	P	P	_	0	_
2	all	_	D	D	_	1	_
3	of	_	P	P	_	2	_
4	us	_	O	O	_	3	_
5	who	_	O	O	_	6	_
6	needs	_	V	V	_	4	_
7	a	_	D	D	_	9	_
8	simple	_	A	A	_	9	_
9	reminder	_	N	N	_	6	_
10	of	_	P	P	_	9	_
11	how	_	R	R	_	10	_
12	to	_	P	P	_	6	_
13	get	_	V	V	_	12	_
14	the	_	D	D	_	15	_
15	job	_	N	N	_	13	_
16	done	_	V	V	_	13	_
17	!	_	,	,	_	-1	_
18	Thanks	_	N	N	_	0	_
19	,	_	,	,	_	-1	_
20	Yoda	_	^	^	_	0	_
21	!!	_	,	,	_	-1	_
22	#inspirationalquotes	_	#	#	_	-1	_
23	#StarWars	_	#	#	_	-1	_
24	http://t.co/nHUyI2VDkr	_	U	U	_	-1	_

1	Write	_	V	V	_	0	_
2	about	_	P	P	_	1	_
3	#StarWars	_	^	^	_	2	_
4	,	_	,	,	_	-1	_
5	win	_	V	V	_	0	_
6	a	_	D	D	_	8	_
7	custom	_	A	A	_	8	_
8	lightsaber	_	N	N	_	5	_
9	!	_	,	,	_	-1	_
10	Details	_	N	N	_	11	_
11	here	_	R	R	_	5	_
12	:	_	,	,	_	-1	_
13	http://t.co/7H28SHmIsq	_	U	U	_	-1	_
14	http://t.co/qnNAqD9JU5	_	U	U	_	-1	_

1	#StarWars	_	#	#	_	-1	_
2	:	_	,	,	_	-1	_
3	Who	_	O	O	_	4	_
4	is	_	V	V	_	0	_
5	Rey	_	^	^	_	4	_
6	?	_	,	,	_	-1	_
7	http://t.co/3rRJ89Md0s	_	U	U	_	-1	_
8	http://t.co/UuzW7pE5T9	_	U	U	_	-1	_

1	Kids	_	N	N	_	0	_
2	!	_	,	,	_	-1	_
3	#DarthVader	_	#	#	_	-1	_
4	#StarWars	_	#	#	_	-1	_
5	http://t.co/hqaXD7hqMY	_	U	U	_	-1	_

1	Watch	_	V	V	_	0	_
2	the	_	D	D	_	3	_
3	original	_	A	A	_	1	_
4	'	_	,	,	_	-1	_
5	The	_	D	D	_	6	_
6	Making	_	N	N	_	0	_
7	of	_	P	P	_	6	_
8	Star	_	^	^	_	9	_
9	Wars	_	N	N	_	7	_
10	'	_	,	,	_	-1	_
11	documentary	_	N	N	_	0	_
12	:	_	,	,	_	-1	_
13	http://t.co/K6U2gtQ7fV	_	U	U	_	-1	_
14	#StarWars	_	#	#	_	-1	_
15	http://t.co/xLnaY7hfoq	_	U	U	_	-1	_

1	The	_	D	D	_	5	_
2	#StarWars	_	^	^	_	4	MWE
3	-themed	_	^	^	_	4	MWE
4	#R2D2	_	^	^	_	5	_
5	jet	_	N	N	_	0	_
6	from	_	P	P	_	5	_
7	@FlyANA_Official	_	@	@	_	8	_
8	is	_	V	V	_	6	_
9	the	_	D	D	_	10	_
10	Boeing	_	^	^	_	8	_
11	787	_	$	$	_	10	MWE
12	you're	_	L	L	_	0	_
13	looking	_	V	V	_	12	_
14	for	_	P	P	_	13	_
15	http://t.co/EIpMgCeRQx	_	U	U	_	-1	_
16	http://t.co/LrLzfPH0JR	_	U	U	_	-1	_

1	#StarWars	_	#	#	_	-1	_
2	:	_	,	,	_	-1	_
3	We	_	O	O	_	4	_
4	steal	_	V	V	_	0	_
5	the	_	D	D	_	8	_
6	Death	_	N	N	_	8	_
7	Star	_	N	N	_	8	MWE
8	plans	_	N	N	_	4	_
9	http://t.co/aUCMBFqpCY	_	U	U	_	-1	_
10	http://t.co/pmBQyYCVU6	_	U	U	_	-1	_

1	Obi-Wan	_	^	^	_	3	_
2	never	_	R	R	_	3	_
3	told	_	V	V	_	0	_
4	you	_	O	O	_	3	_
5	what	_	O	O	_	6	_
6	happened	_	V	V	_	3	_
7	to	_	P	P	_	6	_
8	your	_	D	D	_	9	_
9	mattress	_	N	N	_	7	_
10	#StarWars	_	#	#	_	-1	_
11	http://t.co/GaTwZ5fNnI	_	U	U	_	-1	_

1	Nerd	_	N	N	_	2	_
2	demigod	_	N	N	_	0	_
3	,	_	,	,	_	-1	_
4	Neil	_	^	^	_	6	MWE
5	deGrasse	_	^	^	_	6	MWE
6	Tyson	_	^	^	_	0	_
7	,	_	,	,	_	-1	_
8	weighs	_	V	V	_	0	_
9	in	_	T	T	_	8	MWE
10	on	_	P	P	_	8	_
11	the	_	D	D	_	13	_
12	#StarTrek	_	^	^	_	13	MWE
13	vs	_	^	^	_	10	_
14	.	_	,	,	_	-1	_
15	#StarWars	_	#	#	_	-1	_
16	debate	_	N	N	_	0	_
17	http://t.co/NYwoPdbjvR	_	U	U	_	-1	_
18	http://t.co/QWKTIMqx8c	_	U	U	_	-1	_

1	Could	_	V	V	_	0	_
2	#StarWars	_	#	#	_	-1	_
3	Open	_	V	V	_	1	_
4	at	_	P	P	_	3	_
5	$500	_	$	$	_	6	_
6	Million	_	N	N	_	4	_
7	?	_	,	,	_	-1	_
8	The	_	D	D	_	9	_
9	Force	_	N	N	_	10	_
10	Is	_	V	V	_	0	_
11	Strong	_	A	A	_	10	_
12	http://t.co/G69oUTzzue	_	U	U	_	-1	_
13	http://t.co/IcD2VFCVY5	_	U	U	_	-1	_

1	In	_	P	P	_	0	_
2	your	_	D	D	_	3	_
3	face	_	N	N	_	1	_
4	!	_	,	,	_	-1	_
5	#StarWars	_	#	#	_	-1	_
6	#Disneyland	_	#	#	_	-1	_
7	#peoplegoincrazy	_	#	#	_	-1	_
8	https://t.co/yj8WUj9SpN	_	U	U	_	-1	_

1	BREAKING	_	N	N	_	0	_
2	:	_	,	,	_	-1	_
3	We've	_	L	L	_	0	_
4	been	_	V	V	_	3	_
5	given	_	V	V	_	4	_
6	A	_	D	D	_	7	_
7	BUNCH	_	N	N	_	5	_
8	of	_	P	P	_	7	_
9	extra	_	A	A	_	10	_
10	passes	_	N	N	_	8	_
11	for	_	P	P	_	5	_
12	that	_	D	D	_	16	_
13	special	_	A	A	_	16	_
14	Avengers	_	^	^	_	16	_
15	brkfst/screening	_	N	N	_	16	_
16	event	_	N	N	_	11	_
17	at	_	P	P	_	16	_
18	#Disneyland	_	^	^	_	17	_
19	!	_	,	,	_	-1	_
20	http://t.co/fb0gTP1h5w	_	U	U	_	-1	_

1	LIVE	_	A	A	_	0	_
2	on	_	P	P	_	1	_
3	#Periscope	_	^	^	_	2	_
4	:	_	,	,	_	-1	_
5	#Disneyland	_	#	#	_	-1	_
6	Paris	_	^	^	_	0	_
7	https://t.co/g0IGhtUb38	_	U	U	_	-1	_

1	LIVE	_	A	A	_	0	_
2	on	_	P	P	_	1	_
3	#Periscope	_	^	^	_	2	_
4	:	_	,	,	_	-1	_
5	#plamet_hollywood	_	#	#	_	-1	_
6	#disneyland	_	#	#	_	-1	_
7	#like_no_other	_	#	#	_	-1	_
8	https://t.co/JtKoRfdd24	_	U	U	_	-1	_

1	Now	_	R	R	_	3	_
2	you	_	O	O	_	3	_
3	can	_	V	V	_	0	_
4	visit	_	V	V	_	3	_
5	#Disneyland	_	^	^	_	4	_
6	for	_	P	P	_	4	_
7	a	_	D	D	_	9	_
8	sneak	_	N	N	_	9	MWE
9	peek	_	N	N	_	6	_
10	into	_	P	P	_	9	_
11	the	_	D	D	_	12	_
12	world	_	N	N	_	10	_
13	of	_	P	P	_	12	_
14	#Tomorrowland	_	^	^	_	13	_
15	!	_	,	,	_	-1	_

1	http://t.co/cZ7Ck2VCCQ	_	U	U	_	-1	_
2	http://t.co/s5t1sGHi11	_	U	U	_	-1	_

1	It's	_	L	L	_	0	_
2	a	_	D	D	_	4	_
3	great	_	A	A	_	4	_
4	time	_	N	N	_	1	_
5	to	_	P	P	_	4	_
6	be	_	V	V	_	5	_
7	a	_	D	D	_	8	_
8	nerd	_	N	N	_	6	_
9	!	_	,	,	_	-1	_
10	Here's	_	L	L	_	0	_
11	a	_	D	D	_	12	_
12	roundup	_	N	N	_	10	_
13	of	_	P	P	_	12	_
14	the	_	D	D	_	16	_
15	new	_	A	A	_	16	_
16	#Fantastic4	_	^	^	_	13	_
17	,	_	,	,	_	-1	_
18	#SupermanVBatman	_	^	^	_	0	_
19	,	_	,	,	_	-1	_
20	&	_	&	&	_	-1	_
21	#StarWars	_	#	#	_	-1	_
22	trailers	_	N	N	_	0	_
23	!	_	,	,	_	-1	_
24	-->	_	G	G	_	-1	_
25	http://t.co/M3rjwHUYzl	_	U	U	_	-1	_

1	For	_	P	P	_	0	_
2	all	_	D	D	_	1	_
3	of	_	P	P	_	2	_
4	us	_	O	O	_	3	_
5	who	_	O	O	_	6	_
6	needs	_	V	V	_	4	_
7	a	_	D	D	_	9	_
8	simple	_	A	A	_	9	_
9	reminder	_	N	N	_	6	_
10	of	_	P	P	_	9	_
11	how	_	R	R	_	10	_
12	to	_	P	P	_	6	_
13	get	_	V	V	_	12	_
14	the	_	D	D	_	15	_
15	job	_	N	N	_	13	_
16	done	_	V	V	_	13	_
17	!	_	,	,	_	-1	_
18	Thanks	_	N	N	_	0	_
19	,	_	,	,	_	-1	_
20	Yoda	_	^	^	_	0	_
21	!!	_	,	,	_	-1	_
22	#inspirationalquotes	_	#	#	_	-1	_
23	#StarWars	_	#	#	_	-1	_
24	http://t.co/nHUyI2VDkr	_	U	U	_	-1	_

